Data Visualization
…
3) Summarise your data into the total number of births per year

```r
names %>% 
  mutate(sex = ifelse(sexe == 1, "Male", "Female")) %>% 
  filter(annais != "XXXX") %>% 
  mutate(annais = as.numeric(annais)) %>% 
* group_by(annais) %>%
* summarise(n = sum(nombre))
```

```
## # A tibble: 122 × 2
##    annais      n
##     <dbl>  <int>
##  1   1900 415040
##  2   1901 453456
##  3   1902 465791
##  4   1903 468810
##  5   1904 478962
##  6   1905 489697
##  7   1906 501745
##  8   1907 501025
##  9   1908 525490
## 10   1909 526233
## # ℹ 112 more rows
```
…
